03---ggplot.knit
…
# Visualizo la tabla para la ejercitación 
eph_region

## # A tibble: 30 x 8
## # Groups:   REGION [6]
##    REGION   EDAD_CAT POBLACION
##    <chr>    <chr>        <int>
##  1 GBA      18 y 21~    914403
##  2 GBA      22 y 38~   3426505
##  3 GBA      39 y 54~   3299452
##  4 GBA      55 y 73~   2593123
##  5 GBA      74 años~    787913
##  6 Noroeste 18 y 21~    190045
##  7 Noroeste 22 y 38~    706274
##  8 Noroeste 39 y 54~    544985
##  9 Noroeste 55 y 73~    400261
## 10 Noroeste 74 años~    121389
## # ... with 20 more rows, and
## #   5 more variables:
## #   OCUPADOS <int>,
## #   DESOCUPADOS <int>,
## #   INACTIVOS <int>,
## #   TNA <dbl>, TNA_O <dbl>
…
